…
Since the vast majority of the observations in the data are one of the top four or five property types, we would like to create a simplified version of property_type variable that has 5 categories: the top four categories and Other. Fill in the code below to create prop_type_simplified.


```{r}

# Arranging the property types to view the top property types
listings %>% 
  count(property_type) %>% 
  mutate(proportion = n/sum(n)) %>% 
  arrange(desc(proportion))
  
```
Output:
A tibble: 40 x 3
   property_type          n proportion
   <chr>              <int>      <dbl>
 1 Apartment          13036     0.623 
 2 Serviced apartment  1454     0.0695
 3 House               1370     0.0655
 4 Boutique hotel      1097     0.0525
 5 Townhouse            621     0.0297
 6 Bed and breakfast    572     0.0274
 7 Aparthotel           569     0.0272
 8 Hotel                542     0.0259
 9 Condominium          501     0.0240
10 Loft                 371     0.0177
# ... with 30 more rows
…
# we make a new column where we assign all other property types than the 4 most common ones to the category other
listings <- listings %>%
  mutate(prop_type_simplified = case_when(
    property_type %in% c("Apartment","Serviced apartment", "House","Boutique hotel") ~ property_type, 
    TRUE ~ "Other"
  ))
# we count the number of properties per property type and we arrange them from most common to least common
listings %>%
  count(property_type, prop_type_simplified) %>%
  arrange(desc(n)) 
  
```
Output:
A tibble: 40 x 3
   property_type      prop_type_simplified     n
   <chr>              <chr>                <int>
 1 Apartment          Apartment            13036
 2 Serviced apartment Serviced apartment    1454
 3 House              House                 1370
 4 Boutique hotel     Boutique hotel        1097
 5 Townhouse          Other                  621
 6 Bed and breakfast  Other                  572
 7 Aparthotel         Other                  569
 8 Hotel              Other                  542
 9 Condominium        Other                  501
10 Loft               Other                  371
# ... with 30 more rows
…
